Document clustering
…
Table of texts with removed/grouped NE

art_rm_NE = NE_Cleansing(art_parg, 'paragraph_num', 'paragraph_text', group = FALSE, rm=TRUE,    Extract_Named_Entities(art_parg) %>% select(-Label) %>% unique())

art_gpe_NE = NE_Cleansing(art_parg, 'paragraph_num', 'paragraph_text', group = TRUE, rm=FALSE,    Extract_Named_Entities(art_parg) %>% select(-Label) %>% unique())

art_rm_NE

## # A tibble: 68 x 5
## # Groups:   text_id [17]
##    text_id paragraph_num paragraph_text               NCHAR TEXT                
##      <int>         <int> <chr>                        <int> <chr>               
##  1       1             1 "Quarterly profits at US me~   135 "  profits at   med~
##  2       1             2 "The firm, which is now one~   319 "The firm, which is~
##  3       1             3 "Time Warner said on Friday~   701 "  said on   that i~
##  4       1             4 "Time Warner's fourth quart~   750 "    profits were s~
##  5       1             5 "TimeWarner is to restate i~   607 "  is to restate it~
##  6       4            10 "British Airways has blamed~    69 "  has blamed high ~
##  7       4            11 "Reporting its results for ~   393 "Reporting its resu~
##  8       4            12 "To help offset the increas~   108 "To help offset the~
##  9       4            13 "In October, it increased t~   977 "In  , it increased~
## 10       4            14 "It also reported on Friday~   817 "It also reported o~
## # ... with 58 more rows

art_gpe_NE

## # A tibble: 68 x 5
## # Groups:   text_id [17]
##    text_id paragraph_num paragraph_text               NCHAR TEXT                
##      <int>         <int> <chr>                        <int> <chr>               
##  1       1             1 "Quarterly profits at US me~   135 "Quarterly profits ~
##  2       1             2 "The firm, which is now one~   319 "The firm, which is~
##  3       1             3 "Time Warner said on Friday~   701 "TimeWarner said on~
##  4       1             4 "Time Warner's fourth quart~   750 "TimeWarner fourthq~
##  5       1             5 "TimeWarner is to restate i~   607 "TimeWarner is to r~
##  6       4            10 "British Airways has blamed~    69 "BritishAirways has~
##  7       4            11 "Reporting its results for ~   393 "Reporting its resu~
##  8       4            12 "To help offset the increas~   108 "To help offset the~
##  9       4            13 "In October, it increased t~   977 "In October, it inc~
## 10       4            14 "It also reported on Friday~   817 "It also reported o~
## # ... with 58 more rows
…
df_documents

## # A tibble: 1,743 x 3
##    text_id word          n
##      <int> <chr>     <int>
##  1       1 account       2
##  2       1 adjust        1
##  3       1 advert        1
##  4       1 advertise     2
##  5       1 alexander     1
##  6       1 amount        1
##  7       1 analyst       1
##  8       1 aol           5
##  9       1 aol's         2
## 10       1 benefit       1
## # ... with 1,733 more rows
…
